^C:\USERS\FERNANDO.GERACI\SKYDRIVE\VISUAL STUDIO WORKSPACE\MONITORMANAGER\MONITORMANAGER\PROPERTIES\RESOURCES.RESX
C:\USERS\FERNANDO.GERACI\SKYDRIVE\VISUAL STUDIO WORKSPACE\MONITORMANAGER\MONITORMANAGER\OBJ\DEBUG\MONITORMANAGER.PROPERTIES.RESOURCES.RESOURCES
^C:\USERS\FERNANDO.GERACI\SKYDRIVE\VISUAL STUDIO WORKSPACE\MONITORMANAGER\MONITORMANAGER\FORM1.RESX|C:\USERS\FERNANDO.GERACI\SKYDRIVE\VISUAL STUDIO WORKSPACE\MONITORMANAGER\MONITORMANAGER\PROPERTIES\RESOURCES.RESX
C:\USERS\FERNANDO.GERACI\SKYDRIVE\VISUAL STUDIO WORKSPACE\MONITORMANAGER\MONITORMANAGER\OBJ\DEBUG\MONITORMANAGER.FORM1.RESOURCES
C:\USERS\FERNANDO.GERACI\SKYDRIVE\VISUAL STUDIO WORKSPACE\MONITORMANAGER\MONITORMANAGER\OBJ\DEBUG\MONITORMANAGER.PROPERTIES.RESOURCES.RESOURCES
